<mxfile host="app.diagrams.net" modified="2021-02-07T20:55:17.747Z" agent="5.0 (X11)" etag="miHhICouzDNouGY3YV7F" version="14.2.9" type="github">
  <diagram name="Page-1" id="74e2e168-ea6b-b213-b513-2b3c1d86103e">
    <mxGraphModel dx="2522" dy="1585" grid="1" gridSize="10" guides="1" tooltips="1" connect="1" arrows="1" fold="1" page="1" pageScale="1" pageWidth="1100" pageHeight="850" background="#ffffff" math="0" shadow="0">
      <root>
        <mxCell id="0" />
        <mxCell id="1" parent="0" />
        <mxCell id="HMXqXQV6ebhL2bGFz6mi-36" style="edgeStyle=orthogonalEdgeStyle;rounded=0;orthogonalLoop=1;jettySize=auto;html=1;entryX=0;entryY=0.5;entryDx=0;entryDy=0;strokeWidth=3;strokeColor=#575757;" parent="1" source="HMXqXQV6ebhL2bGFz6mi-34" target="HMXqXQV6ebhL2bGFz6mi-35" edge="1">
          <mxGeometry relative="1" as="geometry" />
        </mxCell>
        <mxCell id="HMXqXQV6ebhL2bGFz6mi-34" value="&lt;font style=&quot;font-size: 15px&quot; face=&quot;Verdana&quot;&gt;Start&lt;/font&gt;" style="strokeWidth=3;html=1;shape=mxgraph.flowchart.start_1;whiteSpace=wrap;fontSize=15;fillColor=#f5f5f5;strokeColor=#666666;fontColor=#333333;" parent="1" vertex="1">
          <mxGeometry x="-150" y="-390" width="100" height="60" as="geometry" />
        </mxCell>
        <mxCell id="HMXqXQV6ebhL2bGFz6mi-46" style="edgeStyle=orthogonalEdgeStyle;rounded=0;orthogonalLoop=1;jettySize=auto;html=1;entryX=0;entryY=0.5;entryDx=0;entryDy=0;strokeWidth=3;strokeColor=#575757;" parent="1" source="HMXqXQV6ebhL2bGFz6mi-35" target="HMXqXQV6ebhL2bGFz6mi-45" edge="1">
          <mxGeometry relative="1" as="geometry" />
        </mxCell>
        <mxCell id="HMXqXQV6ebhL2bGFz6mi-35" value="&lt;div&gt;Fetch closest &lt;br&gt;&lt;/div&gt;&lt;div&gt;goalpoint&lt;/div&gt;" style="html=1;dashed=0;whitespace=wrap;fontSize=15;strokeWidth=3;fillColor=#f5f5f5;strokeColor=#666666;gradientColor=#b3b3b3;" parent="1" vertex="1">
          <mxGeometry y="-385" width="140" height="50" as="geometry" />
        </mxCell>
        <mxCell id="HMXqXQV6ebhL2bGFz6mi-38" style="edgeStyle=orthogonalEdgeStyle;rounded=0;orthogonalLoop=1;jettySize=auto;html=1;entryX=0.5;entryY=1;entryDx=0;entryDy=0;strokeWidth=3;strokeColor=#575757;" parent="1" source="HMXqXQV6ebhL2bGFz6mi-37" target="HMXqXQV6ebhL2bGFz6mi-35" edge="1">
          <mxGeometry relative="1" as="geometry" />
        </mxCell>
        <mxCell id="HMXqXQV6ebhL2bGFz6mi-48" style="edgeStyle=orthogonalEdgeStyle;rounded=0;orthogonalLoop=1;jettySize=auto;html=1;entryX=0.5;entryY=1;entryDx=0;entryDy=0;strokeWidth=5;fillColor=#f8cecc;strokeColor=#b85450;" parent="1" source="HMXqXQV6ebhL2bGFz6mi-37" target="HMXqXQV6ebhL2bGFz6mi-41" edge="1">
          <mxGeometry relative="1" as="geometry">
            <Array as="points">
              <mxPoint x="70" y="-142" />
              <mxPoint x="610" y="-142" />
            </Array>
          </mxGeometry>
        </mxCell>
        <mxCell id="HMXqXQV6ebhL2bGFz6mi-37" value="&lt;div style=&quot;font-size: 13px;&quot;&gt;Obstacle &lt;br style=&quot;font-size: 13px;&quot;&gt;&lt;/div&gt;&lt;div style=&quot;font-size: 13px;&quot;&gt;gone?&lt;/div&gt;" style="shape=rhombus;html=1;dashed=0;whitespace=wrap;perimeter=rhombusPerimeter;fontSize=13;strokeWidth=3;fillColor=#f5f5f5;fontColor=#333333;fontStyle=1;strokeColor=#FF8000;" parent="1" vertex="1">
          <mxGeometry x="22.5" y="-250" width="95" height="87.5" as="geometry" />
        </mxCell>
        <mxCell id="HMXqXQV6ebhL2bGFz6mi-40" style="edgeStyle=orthogonalEdgeStyle;rounded=0;orthogonalLoop=1;jettySize=auto;html=1;entryX=1;entryY=0.5;entryDx=0;entryDy=0;fillColor=#f8cecc;strokeColor=#b85450;strokeWidth=5;" parent="1" source="HMXqXQV6ebhL2bGFz6mi-39" target="HMXqXQV6ebhL2bGFz6mi-37" edge="1">
          <mxGeometry relative="1" as="geometry" />
        </mxCell>
        <mxCell id="HMXqXQV6ebhL2bGFz6mi-39" value="&lt;div&gt;Drive parrallel&lt;/div&gt;&lt;div&gt;to obstacle&lt;/div&gt;" style="html=1;dashed=0;whitespace=wrap;fontSize=15;strokeWidth=3;fillColor=#f5f5f5;strokeColor=#666666;gradientColor=#b3b3b3;" parent="1" vertex="1">
          <mxGeometry x="262.5" y="-233.75" width="135" height="55" as="geometry" />
        </mxCell>
        <mxCell id="HMXqXQV6ebhL2bGFz6mi-42" style="edgeStyle=orthogonalEdgeStyle;rounded=0;orthogonalLoop=1;jettySize=auto;html=1;entryX=1;entryY=0.5;entryDx=0;entryDy=0;fillColor=#f8cecc;strokeColor=#b85450;strokeWidth=5;" parent="1" source="HMXqXQV6ebhL2bGFz6mi-41" target="HMXqXQV6ebhL2bGFz6mi-39" edge="1">
          <mxGeometry relative="1" as="geometry" />
        </mxCell>
        <mxCell id="HMXqXQV6ebhL2bGFz6mi-41" value="&lt;div&gt;Line up in a 90° angle &lt;br&gt;&lt;/div&gt;&lt;div&gt;relative to the obstacle&lt;br&gt;&lt;/div&gt;" style="html=1;dashed=0;whitespace=wrap;fontSize=15;strokeWidth=3;fillColor=#f5f5f5;strokeColor=#666666;gradientColor=#b3b3b3;" parent="1" vertex="1">
          <mxGeometry x="520" y="-241.25" width="180" height="70" as="geometry" />
        </mxCell>
        <mxCell id="HMXqXQV6ebhL2bGFz6mi-44" style="edgeStyle=orthogonalEdgeStyle;rounded=0;orthogonalLoop=1;jettySize=auto;html=1;entryX=0.5;entryY=0;entryDx=0;entryDy=0;strokeWidth=3;strokeColor=#575757;" parent="1" source="HMXqXQV6ebhL2bGFz6mi-43" target="HMXqXQV6ebhL2bGFz6mi-41" edge="1">
          <mxGeometry relative="1" as="geometry" />
        </mxCell>
        <mxCell id="HMXqXQV6ebhL2bGFz6mi-51" style="edgeStyle=orthogonalEdgeStyle;rounded=0;orthogonalLoop=1;jettySize=auto;html=1;entryX=1;entryY=0.5;entryDx=0;entryDy=0;fillColor=#d5e8d4;strokeColor=#82b366;strokeWidth=5;" parent="1" source="HMXqXQV6ebhL2bGFz6mi-43" target="HMXqXQV6ebhL2bGFz6mi-49" edge="1">
          <mxGeometry relative="1" as="geometry">
            <Array as="points">
              <mxPoint x="610" y="-530" />
            </Array>
          </mxGeometry>
        </mxCell>
        <mxCell id="HMXqXQV6ebhL2bGFz6mi-43" value="&lt;div style=&quot;font-size: 13px;&quot;&gt;Obstacle &lt;br style=&quot;font-size: 13px;&quot;&gt;&lt;/div&gt;&lt;div style=&quot;font-size: 13px;&quot;&gt;too close?&lt;/div&gt;" style="shape=rhombus;html=1;dashed=0;whitespace=wrap;perimeter=rhombusPerimeter;fontSize=13;strokeWidth=3;fillColor=#f5f5f5;fontColor=#333333;fontStyle=1;strokeColor=#FF8000;" parent="1" vertex="1">
          <mxGeometry x="555" y="-400" width="110" height="80" as="geometry" />
        </mxCell>
        <mxCell id="HMXqXQV6ebhL2bGFz6mi-47" style="edgeStyle=orthogonalEdgeStyle;rounded=0;orthogonalLoop=1;jettySize=auto;html=1;fillColor=#d5e8d4;strokeColor=#82b366;strokeWidth=5;" parent="1" source="HMXqXQV6ebhL2bGFz6mi-45" target="HMXqXQV6ebhL2bGFz6mi-43" edge="1">
          <mxGeometry relative="1" as="geometry" />
        </mxCell>
        <mxCell id="HMXqXQV6ebhL2bGFz6mi-45" value="&lt;div&gt;Drive towards&lt;/div&gt;&lt;div&gt;goalpoint&lt;/div&gt;" style="html=1;dashed=0;whitespace=wrap;fontSize=15;strokeWidth=3;fillColor=#f5f5f5;strokeColor=#666666;gradientColor=#b3b3b3;" parent="1" vertex="1">
          <mxGeometry x="287.5" y="-385" width="140" height="50" as="geometry" />
        </mxCell>
        <mxCell id="HMXqXQV6ebhL2bGFz6mi-50" style="edgeStyle=orthogonalEdgeStyle;rounded=0;orthogonalLoop=1;jettySize=auto;html=1;entryX=0.5;entryY=0;entryDx=0;entryDy=0;fillColor=#d5e8d4;strokeColor=#82b366;strokeWidth=5;" parent="1" source="HMXqXQV6ebhL2bGFz6mi-49" target="HMXqXQV6ebhL2bGFz6mi-45" edge="1">
          <mxGeometry relative="1" as="geometry" />
        </mxCell>
        <mxCell id="w7MUhpoag6y5IE2_kSsy-2" style="edgeStyle=orthogonalEdgeStyle;rounded=0;orthogonalLoop=1;jettySize=auto;html=1;entryX=1;entryY=0.5;entryDx=0;entryDy=0;strokeWidth=3;strokeColor=#575757;" parent="1" source="HMXqXQV6ebhL2bGFz6mi-49" target="w7MUhpoag6y5IE2_kSsy-1" edge="1">
          <mxGeometry relative="1" as="geometry" />
        </mxCell>
        <mxCell id="HMXqXQV6ebhL2bGFz6mi-49" value="&lt;div style=&quot;font-size: 13px;&quot;&gt;Goalpoint &lt;br style=&quot;font-size: 13px;&quot;&gt;&lt;/div&gt;&lt;div style=&quot;font-size: 13px;&quot;&gt;reached?&lt;br style=&quot;font-size: 13px;&quot;&gt;&lt;/div&gt;" style="shape=rhombus;html=1;dashed=0;whitespace=wrap;perimeter=rhombusPerimeter;fontSize=13;strokeWidth=3;fillColor=#f5f5f5;fontColor=#333333;fontStyle=1;strokeColor=#FF8000;" parent="1" vertex="1">
          <mxGeometry x="302.5" y="-570" width="110" height="80" as="geometry" />
        </mxCell>
        <mxCell id="HMXqXQV6ebhL2bGFz6mi-53" value="No" style="text;html=1;align=center;verticalAlign=middle;resizable=0;points=[];autosize=1;fontSize=15;fontStyle=3" parent="1" vertex="1">
          <mxGeometry x="570" y="-520" width="40" height="20" as="geometry" />
        </mxCell>
        <mxCell id="HMXqXQV6ebhL2bGFz6mi-54" value="Yes" style="text;html=1;align=center;verticalAlign=middle;resizable=0;points=[];autosize=1;fontSize=15;fontStyle=3" parent="1" vertex="1">
          <mxGeometry x="565" y="-300" width="40" height="20" as="geometry" />
        </mxCell>
        <mxCell id="HMXqXQV6ebhL2bGFz6mi-55" value="No" style="text;html=1;align=center;verticalAlign=middle;resizable=0;points=[];autosize=1;fontSize=15;fontStyle=3" parent="1" vertex="1">
          <mxGeometry x="337.5" y="-130" width="40" height="20" as="geometry" />
        </mxCell>
        <mxCell id="HMXqXQV6ebhL2bGFz6mi-56" value="Yes" style="text;html=1;align=center;verticalAlign=middle;resizable=0;points=[];autosize=1;fontSize=15;fontStyle=3" parent="1" vertex="1">
          <mxGeometry x="77.5" y="-290" width="40" height="20" as="geometry" />
        </mxCell>
        <mxCell id="HMXqXQV6ebhL2bGFz6mi-57" value="Yes" style="text;html=1;align=center;verticalAlign=middle;resizable=0;points=[];autosize=1;fontSize=15;fontStyle=3" parent="1" vertex="1">
          <mxGeometry x="190" y="-530" width="40" height="20" as="geometry" />
        </mxCell>
        <mxCell id="HMXqXQV6ebhL2bGFz6mi-58" value="No" style="text;html=1;align=center;verticalAlign=middle;resizable=0;points=[];autosize=1;fontSize=15;fontStyle=3" parent="1" vertex="1">
          <mxGeometry x="310" y="-465" width="40" height="20" as="geometry" />
        </mxCell>
        <mxCell id="w7MUhpoag6y5IE2_kSsy-4" style="edgeStyle=orthogonalEdgeStyle;rounded=0;orthogonalLoop=1;jettySize=auto;html=1;entryX=1;entryY=0.5;entryDx=0;entryDy=0;entryPerimeter=0;strokeWidth=3;strokeColor=#575757;" parent="1" source="w7MUhpoag6y5IE2_kSsy-1" target="w7MUhpoag6y5IE2_kSsy-3" edge="1">
          <mxGeometry relative="1" as="geometry" />
        </mxCell>
        <mxCell id="w7MUhpoag6y5IE2_kSsy-6" style="edgeStyle=orthogonalEdgeStyle;rounded=0;orthogonalLoop=1;jettySize=auto;html=1;entryX=0.5;entryY=0;entryDx=0;entryDy=0;strokeColor=#575757;strokeWidth=3;" parent="1" source="w7MUhpoag6y5IE2_kSsy-1" target="HMXqXQV6ebhL2bGFz6mi-35" edge="1">
          <mxGeometry relative="1" as="geometry" />
        </mxCell>
        <mxCell id="w7MUhpoag6y5IE2_kSsy-1" value="&lt;div&gt;All goals&lt;/div&gt;&lt;div&gt; reached?&lt;/div&gt;" style="shape=rhombus;html=1;dashed=0;whitespace=wrap;perimeter=rhombusPerimeter;fontSize=13;strokeWidth=3;fillColor=#f5f5f5;fontColor=#333333;fontStyle=1;strokeColor=#FF8000;" parent="1" vertex="1">
          <mxGeometry x="15" y="-570" width="110" height="80" as="geometry" />
        </mxCell>
        <mxCell id="w7MUhpoag6y5IE2_kSsy-3" value="Finish" style="strokeWidth=3;html=1;shape=mxgraph.flowchart.start_1;whiteSpace=wrap;fontSize=15;fillColor=#f5f5f5;strokeColor=#666666;fontColor=#333333;" parent="1" vertex="1">
          <mxGeometry x="-150" y="-560" width="100" height="60" as="geometry" />
        </mxCell>
        <mxCell id="w7MUhpoag6y5IE2_kSsy-5" value="Yes" style="text;html=1;align=center;verticalAlign=middle;resizable=0;points=[];autosize=1;fontSize=15;fontStyle=3" parent="1" vertex="1">
          <mxGeometry x="-30" y="-530" width="40" height="20" as="geometry" />
        </mxCell>
        <mxCell id="w7MUhpoag6y5IE2_kSsy-7" value="No" style="text;html=1;align=center;verticalAlign=middle;resizable=0;points=[];autosize=1;fontSize=15;fontStyle=3" parent="1" vertex="1">
          <mxGeometry x="77.5" y="-465" width="40" height="20" as="geometry" />
        </mxCell>
      </root>
    </mxGraphModel>
  </diagram>
</mxfile>
